resolution
800 600
noise level
0.0
focal length
724.264038
landmarks count
22
landmarks
423.31 516.50
427.85 282.45
393.09 320.24
452.98 320.07
295.41 208.35
318.12 192.15
342.40 192.16
364.28 209.05
342.09 212.93
317.22 213.67
467.23 210.92
486.92 194.65
510.24 192.57
530.08 209.15
512.92 214.51
490.08 213.55
354.42 392.37
427.62 379.36
487.45 392.36
426.34 413.49
426.76 389.01
426.39 392.61
alpha dim
199
truth alpha
0.494287014008
-1.483121037483
-1.020264029503
-0.446994990110
0.109659001231
1.128736019135
-0.289963006973
1.261551022530
0.475425004959
1.174116969109
0.126947000623
-0.656816005707
-1.481398940086
0.155488997698
0.818551003933
-0.292587995529
-0.540786027908
-0.308641999960
-1.096593022346
-0.493010014296
-0.180739000440
0.045841000974
-0.063782997429
0.611334979534
0.109318003058
1.814015030861
0.312023997307
1.804494023323
-0.723120987415
0.526547014713
-0.260250985622
0.600143015385
0.593931019306
-2.186022043228
-1.327043056488
-1.441014051437
0.401843994856
1.470201015472
-0.326813995838
0.812322974205
0.545539975166
-1.051632046700
0.397466987371
-0.751895010471
1.516266942024
-0.032566998154
1.636000037193
-0.425058007240
0.589433014393
-0.062790997326
-2.021959066391
-0.982132017612
0.612510979176
-0.054885998368
-1.118731975555
-0.626379013062
0.249518007040
-0.993018984795
0.974950015545
-0.640709996223
1.808863043785
-1.079866051674
0.199189007282
-1.521026968956
-0.723631024361
-0.593249976635
0.401336014271
0.942133009434
0.300485998392
-0.373070985079
0.815488994122
0.798887014389
0.120205000043
0.571247994900
0.412795990705
-0.986962020397
0.759567975998
-0.657200992107
-0.603918015957
0.176946997643
-0.307502985001
-0.131819993258
0.595358014107
1.046833038330
-0.197959005833
0.327677994967
-0.238302007318
0.229597002268
0.439998000860
-0.616865992546
0.274836987257
0.601101994514
0.092307999730
1.729840993881
-0.608556985855
-0.737060010433
-1.749879002571
0.910483002663
0.867083013058
-0.079893000424
0.898476004601
0.183703005314
0.290789991617
0.112944997847
0.439951986074
0.101662002504
2.787334918976
-1.166664958000
-1.854298949242
-1.140681028366
-1.093343019485
-0.433609008789
-0.168469995260
-0.218533992767
0.541333973408
0.389266014099
0.751228988171
1.778255939484
1.223062992096
-1.283256053925
-2.328954935074
0.901930987835
-1.835638999939
0.066757000983
0.035479001701
2.227168083191
-0.069214001298
-0.507323026657
0.235809996724
0.245804995298
0.070045001805
-0.608581006527
-1.222592949867
0.316500008106
-1.342869043350
-1.032184004784
1.331215977669
-0.418902993202
-0.140321999788
0.899821996689
-0.300110995770
1.029366016388
-0.345066010952
1.012802004814
0.629334986210
-0.213015004992
-0.865697026253
-1.043107986450
-0.270069003105
-0.438140988350
-0.408674001694
0.983545005322
-0.297697007656
1.143679022789
-0.531620025635
0.972566008568
-0.522249996662
0.176578000188
0.970737993717
-0.413971990347
-0.438270986080
2.003391027451
0.950993001461
-0.432004004717
0.648940980434
-0.360076010227
0.705884993076
1.415848970413
-1.604516029358
1.028853058815
1.457967996597
0.047471001744
1.746256947517
0.155387997627
-1.237120032310
-2.193494081497
-0.333407014608
0.713542997837
0.317407995462
0.413610011339
-0.577085971832
0.144002005458
-1.638666033745
-0.760089993477
-0.818792998791
0.519729018211
-0.014159999788
-1.155529022217
-0.009524999186
-0.689810991287
-0.666698992252
0.864148974419
0.113418996334
0.398362994194
0.883970022202
0.180258005857
0.550854980946
0.682964026928
1.170608997345
truth rotation
0.997564077377 0.000000000000 0.069756470621 -0.000000000000 -1.000000000000 -0.000000000000 0.069756470621 -0.000000000000 -0.997564077377
truth translation
0.000000000000 -0.000000000000 358486.062500000000
