resolution
800 600
noise level
0.0
focal length
724.264038
landmarks count
22
landmarks
288.78 484.36
250.33 288.96
248.64 324.37
295.73 326.02
223.93 226.03
229.38 214.47
245.10 214.83
262.28 229.97
246.98 230.88
232.60 230.35
337.88 225.33
354.68 206.01
377.54 205.43
394.73 217.10
377.90 222.62
357.47 225.80
245.00 389.52
268.69 368.29
343.00 384.70
276.13 410.56
270.70 384.60
271.66 384.77
alpha dim
199
truth alpha
-0.988434970379
1.817942976952
-0.374437004328
-1.451740980148
-0.618682026863
0.934500992298
1.055928945541
0.160227000713
0.287400007248
0.632906019688
-1.459041953087
-0.581709980965
-1.830149054527
-0.449102997780
0.949275016785
0.717441022396
2.287828922272
0.166728004813
-2.156491041183
1.689399003983
1.282281041145
-0.582630991936
0.222614005208
0.779451012611
0.384707003832
0.696367025375
-0.112715996802
-0.038823999465
0.088088996708
-0.789655983448
1.422960996628
0.006331999786
0.686480998993
-0.854933977127
-1.075235009193
-0.090966999531
-0.252772003412
1.194823980331
0.606064021587
0.540513992310
-1.444939017296
-0.967693984509
0.202050998807
-0.347878009081
1.290088057518
1.341153979301
-0.580797970295
0.875136017799
1.395449995995
0.320984989405
1.623381972313
1.062433004379
0.214104995131
0.876802980900
0.194407001138
-0.414891988039
0.358458995819
0.036223001778
-0.364630997181
1.771020054817
0.221273005009
2.730377912521
-0.296164989471
0.564296007156
1.582620978355
2.729229927063
0.303564012051
-0.790257990360
0.803380012512
-1.319903016090
-0.273846000433
0.271867007017
1.489554047585
1.437142014503
-0.027560999617
0.923931002617
-0.321280002594
0.661125004292
1.915294051170
0.156760007143
-0.300536006689
-0.500034987926
0.716471016407
1.337288975716
2.125679969788
0.054046001285
0.163036003709
-0.632706999779
1.611991047859
-0.075448997319
-0.473237007856
2.184241056442
0.809880971909
0.716342985630
-1.005571007729
0.433986991644
0.520143985748
-1.092244982719
-0.225794002414
-0.404922008514
0.527858972549
-1.006963014603
1.089027047157
1.784875035286
-0.303754985332
-0.008696999401
0.506635010242
1.203251957893
0.522018015385
0.397045999765
-0.482811003923
-0.231497004628
0.613385021687
1.682850956917
0.568394005299
-1.206029057503
0.433059990406
-0.092120997608
-0.244055002928
-0.219189003110
-0.879767000675
-0.320803999901
-0.784415006638
-0.364962995052
0.117270998657
0.174339994788
-0.215655997396
-0.152611002326
0.033688001335
0.458281993866
1.281630992889
0.620090007782
-0.286673992872
0.598016023636
-0.245533004403
-1.780737042427
-2.347239017487
-1.713595032692
-0.237127006054
-0.619625985622
-0.720160007477
0.040656998754
-0.658981025219
-0.630514979362
0.609624981880
0.782334983349
2.436583995819
0.302406996489
0.058320000768
-0.574133992195
-0.195212006569
-0.050530999899
-1.755774974823
-0.257358014584
0.749541997910
-0.570764005184
0.494233012199
0.991439998150
1.077139973640
0.776841998100
-2.259840011597
-0.564377009869
0.901490986347
0.394675999880
0.004854000174
0.436919003725
1.130072951317
0.153770998120
-0.758626997471
-0.180162996054
-0.207790002227
0.896745026112
0.412308007479
0.547519981861
0.147835001349
-0.362266987562
0.061140999198
0.216705992818
-1.398121953011
0.178869992495
0.927583992481
-0.110178001225
1.572397947311
0.560491025448
-0.420345008373
-0.153944998980
-0.275198996067
0.241119995713
0.754685997963
-0.291909992695
0.458445012569
1.755288958549
0.931491017342
0.825263977051
-0.814806997776
-0.534204006195
0.242551997304
-0.100648000836
-1.625048041344
truth rotation
0.906307756901 0.000000000000 -0.422618269920 -0.000000000000 -1.000000000000 -0.000000000000 -0.422618269920 -0.000000000000 -0.906307756901
truth translation
0.000000000000 -0.000000000000 370362.843750000000
