truth 		 reconstructed 
0.537667	--	0.400412
1.833885	--	0.994895
-2.258847	--	-0.976306
0.862173	--	0.767025
0.318765	--	0.114687
-1.307688	--	-0.580555
-0.433592	--	0.179120
0.342624	--	-0.240550
3.578397	--	2.095466
2.769437	--	2.881275
0.537667	--	0.037459
1.833885	--	2.029695
-2.258847	--	-1.312611
0.862173	--	0.261983
0.318765	--	-0.059177
-1.307688	--	-0.737329
-0.433592	--	-0.241503
0.342624	--	0.580901
3.578397	--	1.761127
2.769437	--	2.179655
0.537667	--	-0.383026
1.833885	--	2.344468
-2.258847	--	-0.989069
0.862173	--	-0.439096
0.318765	--	-0.226307
-1.307688	--	-0.217932
-0.433592	--	0.303127
0.342624	--	0.883626
3.578397	--	0.816509
2.769437	--	1.535082
0.537667	--	0.589130
1.833885	--	0.358794
-2.258847	--	-0.332929
0.862173	--	0.730312
0.318765	--	0.317042
-1.307688	--	-1.341101
-0.433592	--	0.314536
0.342624	--	-0.697259
3.578397	--	3.079849
2.769437	--	2.442388
0.537667	--	0.402006
1.833885	--	0.669281
-2.258847	--	-0.092595
0.862173	--	0.009742
0.318765	--	-0.081013
-1.307688	--	-1.487095
-0.433592	--	-0.646550
0.342624	--	-0.060675
3.578397	--	4.142159
2.769437	--	0.522581
0.537667	--	0.017335
1.833885	--	1.448652
-2.258847	--	-0.183030
0.862173	--	-1.159204
0.318765	--	-0.666895
-1.307688	--	-2.115918
-0.433592	--	-0.897972
0.342624	--	0.521405
3.578397	--	3.408616
2.769437	--	0.276076
0.537667	--	-0.336224
1.833885	--	1.911651
-2.258847	--	-0.410445
0.862173	--	-1.447719
0.318765	--	-0.743233
-1.307688	--	-2.185676
-0.433592	--	-0.681611
0.342624	--	-0.749549
3.578397	--	1.884337
2.769437	--	0.489149
0.840376	--	0.460534
-0.888032	--	-0.122187
0.100093	--	-0.361319
-0.544529	--	0.004298
0.303521	--	0.506861
-0.600327	--	0.295027
0.489965	--	-0.131219
0.739363	--	0.770147
1.711888	--	0.401828
-0.194124	--	-0.509703
0.840376	--	0.284421
-0.888032	--	0.228273
0.100093	--	-0.382323
-0.544529	--	-0.065407
0.303521	--	0.395727
-0.600327	--	0.449686
0.489965	--	-0.210161
0.739363	--	0.344673
1.711888	--	-0.100223
-0.194124	--	0.043739
0.840376	--	0.197873
-0.888032	--	0.582123
0.100093	--	-0.725867
-0.544529	--	-0.551976
0.303521	--	0.281903
-0.600327	--	-0.544857
0.489965	--	-0.353187
0.739363	--	-0.129963
1.711888	--	-0.372650
-0.194124	--	-0.556492
0.840376	--	0.419468
-0.888032	--	-0.275353
0.100093	--	-0.182007
-0.544529	--	-0.089554
0.303521	--	0.607636
-0.600327	--	0.383831
0.489965	--	-0.040141
0.739363	--	0.973239
1.711888	--	0.965028
-0.194124	--	-0.386760
0.840376	--	0.335532
-0.888032	--	-0.200012
0.100093	--	-0.015180
-0.544529	--	-0.921184
0.303521	--	0.156084
-0.600327	--	-0.100560
0.489965	--	-0.610796
0.739363	--	1.245471
1.711888	--	1.212391
-0.194124	--	-1.378457
0.840376	--	0.110478
-0.888032	--	0.357132
0.100093	--	0.022985
-0.544529	--	-1.616409
0.303521	--	-0.482571
-0.600327	--	-0.551386
0.489965	--	-1.041431
0.739363	--	0.977442
1.711888	--	0.863684
-0.194124	--	-0.912144
0.840376	--	-0.091062
-0.888032	--	0.452920
0.100093	--	-0.017314
-0.544529	--	-1.633673
0.303521	--	-0.524448
-0.600327	--	-0.598588
0.489965	--	-1.119284
0.739363	--	-0.811155
1.711888	--	-0.082090
-0.194124	--	-1.054462
-2.138355	--	-1.320432
-0.839589	--	-0.560271
1.354594	--	0.951250
-1.072155	--	-0.397569
0.960954	--	1.338207
0.124050	--	-1.077157
1.436697	--	2.897749
-1.960900	--	-1.205333
-0.197698	--	0.071337
-1.207845	--	-1.669189
-2.138355	--	-1.320864
-0.839589	--	-0.308256
1.354594	--	0.480988
-1.072155	--	-0.527047
0.960954	--	0.926795
0.124050	--	-1.298632
1.436697	--	2.669795
-1.960900	--	-2.021021
-0.197698	--	-0.777291
-1.207845	--	-0.584415
-2.138355	--	-1.434909
-0.839589	--	0.254370
1.354594	--	0.304039
-1.072155	--	-0.049401
0.960954	--	1.148778
0.124050	--	-1.062758
1.436697	--	2.500877
-1.960900	--	-1.884158
-0.197698	--	-0.984242
-1.207845	--	-1.218139
-2.138355	--	-1.425058
-0.839589	--	-0.474039
1.354594	--	1.215540
-1.072155	--	-0.772690
0.960954	--	1.075437
0.124050	--	-0.853864
1.436697	--	2.650307
-1.960900	--	-1.638056
-0.197698	--	0.269307
-1.207845	--	-1.642498
-2.138355	--	-1.444364
-0.839589	--	-0.668045
1.354594	--	1.361543
-1.072155	--	-1.248806
0.960954	--	0.724143
0.124050	--	-1.171023
1.436697	--	2.390883
-1.960900	--	-1.331661
-0.197698	--	0.347490
-1.207845	--	-1.850540
-2.138355	--	-1.646310
-0.839589	--	-0.121082
1.354594	--	1.115035
-1.072155	--	-1.610728
0.960954	--	0.152648
0.124050	--	-1.682066
1.436697	--	1.214439
-1.960900	--	-2.907184
-0.197698	--	-0.100280
-1.207845	--	-1.549532
-2.138355	--	-1.756547
-0.839589	--	-0.100809
1.354594	--	1.015949
-1.072155	--	-1.682404
0.960954	--	-0.081559
0.124050	--	-2.313115
1.436697	--	0.828671
-1.960900	--	-3.569041
-0.197698	--	-0.408029
-1.207845	--	-1.796757
2.908008	--	1.424911
0.825219	--	0.575531
1.378972	--	-0.859143
-1.058180	--	-1.145980
-0.468616	--	0.856282
-0.272469	--	1.830445
1.098425	--	-0.140961
-0.277872	--	-0.417134
0.701541	--	-1.522020
-2.051816	--	-0.380358
2.908008	--	1.291387
0.825219	--	1.205380
1.378972	--	-1.167921
-1.058180	--	-1.673499
-0.468616	--	0.560718
-0.272469	--	1.604053
1.098425	--	-0.303108
-0.277872	--	-0.487518
0.701541	--	-2.260018
-2.051816	--	-0.121169
2.908008	--	1.265471
0.825219	--	1.334534
1.378972	--	-0.883717
-1.058180	--	-0.688745
-0.468616	--	0.754426
-0.272469	--	3.178481
1.098425	--	0.100589
-0.277872	--	-0.231019
0.701541	--	-2.534546
-2.051816	--	-1.349404
2.908008	--	1.435234
0.825219	--	0.189501
1.378972	--	-0.698303
-1.058180	--	-1.334067
-0.468616	--	1.137389
-0.272469	--	1.885360
1.098425	--	-0.510047
-0.277872	--	0.064725
0.701541	--	-0.378352
-2.051816	--	-1.087496
2.908008	--	1.272361
0.825219	--	0.516286
1.378972	--	-0.447624
-1.058180	--	-2.053633
-0.468616	--	0.464562
-0.272469	--	1.853353
1.098425	--	-1.124137
-0.277872	--	0.591061
0.701541	--	-0.202926
-2.051816	--	-2.056164
2.908008	--	0.947250
0.825219	--	1.306357
1.378972	--	-0.486853
-1.058180	--	-2.349971
-0.468616	--	0.145372
-0.272469	--	2.188881
1.098425	--	-1.628433
-0.277872	--	0.591031
0.701541	--	-0.934511
-2.051816	--	-2.363991
2.908008	--	0.865765
0.825219	--	0.976845
1.378972	--	-0.433254
-1.058180	--	-2.334145
-0.468616	--	0.184962
-0.272469	--	2.261611
1.098425	--	-1.163507
-0.277872	--	-0.837627
0.701541	--	-1.783614
-2.051816	--	-2.034634
-0.353850	--	-0.072228
-0.823587	--	-0.327174
-1.577057	--	-0.418914
0.507975	--	1.194845
0.281984	--	-0.135435
0.033480	--	0.147400
-1.333678	--	-0.371460
1.127492	--	1.307235
0.350179	--	-0.352137
-0.299066	--	-0.018141
-0.353850	--	-0.474507
-0.823587	--	0.504864
-1.577057	--	-0.413314
0.507975	--	1.161623
0.281984	--	-0.255456
0.033480	--	0.809234
-1.333678	--	-0.662070
1.127492	--	1.062292
0.350179	--	-1.186042
-0.299066	--	-0.097040
-0.353850	--	-0.460124
-0.823587	--	0.813049
-1.577057	--	-0.905804
0.507975	--	0.667944
0.281984	--	-0.245433
0.033480	--	-0.477135
-1.333678	--	-0.926982
1.127492	--	0.895893
0.350179	--	-1.192081
-0.299066	--	-1.278010
-0.353850	--	0.007150
-0.823587	--	-0.690963
-1.577057	--	0.168502
0.507975	--	1.222190
0.281984	--	0.068919
0.033480	--	-0.070653
-1.333678	--	-0.518544
1.127492	--	1.021050
0.350179	--	0.541992
-0.299066	--	-1.123520
-0.353850	--	-0.180241
-0.823587	--	-0.382447
-1.577057	--	0.451051
0.507975	--	0.595131
0.281984	--	-0.511194
0.033480	--	-0.171341
-1.333678	--	-1.325192
1.127492	--	1.691288
0.350179	--	0.924517
-0.299066	--	-2.149713
-0.353850	--	-0.463801
-0.823587	--	0.226376
-1.577057	--	0.206660
0.507975	--	-0.229584
0.281984	--	-1.100305
0.033480	--	-0.854533
-1.333678	--	-2.112849
1.127492	--	0.801781
0.350179	--	0.288591
-0.299066	--	-1.850548
-0.353850	--	-0.811906
-0.823587	--	0.316940
-1.577057	--	0.217534
0.507975	--	-0.551175
0.281984	--	-0.786306
0.033480	--	-1.080927
-1.333678	--	-1.773605
1.127492	--	0.104601
0.350179	--	-0.220233
-0.299066	--	-2.316521
0.022890	--	0.130291
-0.261995	--	-0.112059
-1.750212	--	-0.547026
-0.285651	--	0.863914
-0.831367	--	-0.455458
-0.979206	--	0.463457
-1.156402	--	0.223354
-0.533557	--	-0.102616
-2.002636	--	-2.368223
0.964229	--	0.812472
0.022890	--	-0.168694
-0.261995	--	0.853149
-1.750212	--	-0.826490
-0.285651	--	0.491720
-0.831367	--	-0.915912
-0.979206	--	0.478696
-1.156402	--	-0.150858
-0.533557	--	-0.146809
-2.002636	--	-3.533026
0.964229	--	0.920624
0.022890	--	-0.190404
-0.261995	--	0.975178
-1.750212	--	-1.120012
-0.285651	--	0.350109
-0.831367	--	-0.449221
-0.979206	--	-0.357858
-1.156402	--	-0.039732
-0.533557	--	0.512833
-2.002636	--	-2.970233
0.964229	--	-0.720488
0.022890	--	0.278557
-0.261995	--	-0.501066
-1.750212	--	-0.276252
-0.285651	--	0.455568
-0.831367	--	-0.417987
-0.979206	--	-0.776785
-1.156402	--	-0.102874
-0.533557	--	-0.094079
-2.002636	--	-1.455559
0.964229	--	-0.007316
0.022890	--	0.171138
-0.261995	--	-0.332555
-1.750212	--	0.032046
-0.285651	--	0.016627
-0.831367	--	-0.874392
-0.979206	--	-0.299873
-1.156402	--	-0.772058
-0.533557	--	0.024132
-2.002636	--	-1.016014
0.964229	--	-1.063744
0.022890	--	-0.197511
-0.261995	--	0.317003
-1.750212	--	-0.022271
-0.285651	--	-0.719252
-0.831367	--	-1.356937
-0.979206	--	-0.572582
-1.156402	--	-1.560697
-0.533557	--	-0.339853
-2.002636	--	-1.452194
0.964229	--	-1.521266
0.022890	--	-0.522181
-0.261995	--	0.492205
-1.750212	--	0.022467
-0.285651	--	-1.078518
-0.831367	--	-1.356045
-0.979206	--	-1.280072
-1.156402	--	-1.852354
-0.533557	--	-1.951017
-2.002636	--	-1.926081
0.964229	--	-1.767749
0.520060	--	0.364972
-0.020028	--	0.253505
-0.034771	--	-0.465895
-0.798164	--	-0.788086
1.018685	--	1.155360
-0.133217	--	0.251493
-0.714530	--	-0.806865
1.351386	--	1.462182
-0.224771	--	-0.819224
-0.589029	--	-0.333377
0.520060	--	0.145527
-0.020028	--	0.973561
-0.034771	--	-0.678772
-0.798164	--	-1.054352
1.018685	--	0.901074
-0.133217	--	0.043027
-0.714530	--	-0.922171
1.351386	--	0.758786
-0.224771	--	-1.867941
-0.589029	--	0.080926
0.520060	--	0.087500
-0.020028	--	0.936769
-0.034771	--	-0.762882
-0.798164	--	-0.758799
1.018685	--	1.220698
-0.133217	--	0.009500
-0.714530	--	-0.807224
1.351386	--	1.057418
-0.224771	--	-1.446416
-0.589029	--	-0.889036
0.520060	--	0.454425
-0.020028	--	-0.089570
-0.034771	--	-0.005785
-0.798164	--	-0.643327
1.018685	--	1.262080
-0.133217	--	0.338805
-0.714530	--	-1.029231
1.351386	--	1.526290
-0.224771	--	-0.161027
-0.589029	--	-1.079172
0.520060	--	0.300225
-0.020028	--	0.187517
-0.034771	--	0.156359
-0.798164	--	-1.112790
1.018685	--	0.756396
-0.133217	--	0.453252
-0.714530	--	-1.502815
1.351386	--	1.173480
-0.224771	--	-0.142861
-0.589029	--	-1.441347
0.520060	--	-0.030951
-0.020028	--	0.616149
-0.034771	--	0.101532
-0.798164	--	-1.726826
1.018685	--	0.433444
-0.133217	--	-0.114912
-0.714530	--	-1.964761
1.351386	--	1.161962
-0.224771	--	-0.658202
-0.589029	--	-1.454038
0.520060	--	-0.215351
-0.020028	--	0.752128
-0.034771	--	0.130480
-0.798164	--	-1.933476
1.018685	--	0.193630
-0.133217	--	-0.617797
-0.714530	--	-2.054581
1.351386	--	-1.022128
-0.224771	--	-1.402542
-0.589029	--	-1.929255
-0.293754	--	0.031578
-0.847926	--	-0.197229
-1.120128	--	-0.334605
2.526000	--	2.308581
1.655498	--	0.539331
0.307535	--	-0.109573
-1.257118	--	-0.897292
-0.865468	--	0.589266
-0.176534	--	-0.445846
0.791416	--	0.195594
-0.293754	--	-0.283577
-0.847926	--	0.403672
-1.120128	--	-0.639195
2.526000	--	1.787825
1.655498	--	0.262512
0.307535	--	-0.259735
-1.257118	--	-1.461897
-0.865468	--	0.148040
-0.176534	--	-1.109615
0.791416	--	0.395127
-0.293754	--	-0.336671
-0.847926	--	0.927404
-1.120128	--	-0.833140
2.526000	--	1.853568
1.655498	--	0.611854
0.307535	--	-0.719071
-1.257118	--	-1.276276
-0.865468	--	-0.274610
-0.176534	--	-1.411784
0.791416	--	-0.443625
-0.293754	--	-0.021087
-0.847926	--	-0.301770
-1.120128	--	-0.030238
2.526000	--	2.191130
1.655498	--	0.643815
0.307535	--	-0.033278
-1.257118	--	-1.205209
-0.865468	--	0.666274
-0.176534	--	0.306178
0.791416	--	-0.434262
-0.293754	--	-0.120039
-0.847926	--	-0.261888
-1.120128	--	0.280144
2.526000	--	1.610723
1.655498	--	0.132345
0.307535	--	-0.117248
-1.257118	--	-1.679995
-0.865468	--	1.271423
-0.176534	--	0.794280
0.791416	--	-1.259887
-0.293754	--	-0.434243
-0.847926	--	0.359535
-1.120128	--	0.179499
2.526000	--	0.989723
1.655498	--	-0.197480
0.307535	--	-0.476074
-1.257118	--	-1.858601
-0.865468	--	0.837418
-0.176534	--	0.011630
0.791416	--	-0.835488
-0.293754	--	-0.854859
-0.847926	--	0.487024
-1.120128	--	0.105402
2.526000	--	0.151874
1.655498	--	-0.279138
0.307535	--	-1.640899
-1.257118	--	-1.986771
-0.865468	--	-0.847121
-0.176534	--	-0.651841
0.791416	--	-0.353418
-1.332004	--	-0.735144
-2.329867	--	-0.757242
-1.449097	--	0.019601
0.333511	--	1.163664
0.391354	--	-0.463515
0.451679	--	-0.307784
-0.130285	--	0.586431
0.183689	--	1.099794
-0.476153	--	-0.434153
0.862022	--	-0.240082
-1.332004	--	-0.864111
-2.329867	--	-0.438879
-1.449097	--	0.038226
0.333511	--	1.320538
0.391354	--	-0.432344
0.451679	--	0.293009
-0.130285	--	0.677086
0.183689	--	0.638387
-0.476153	--	-0.965143
0.862022	--	-0.154669
-1.332004	--	-1.039117
-2.329867	--	-0.086687
-1.449097	--	-0.302765
0.333511	--	1.089362
0.391354	--	-0.266714
0.451679	--	-0.462241
-0.130285	--	0.309178
0.183689	--	-0.227017
-0.476153	--	-1.334266
0.862022	--	-0.992469
-1.332004	--	-0.671684
-2.329867	--	-1.150743
-1.449097	--	0.457488
0.333511	--	1.155122
0.391354	--	-0.293394
0.451679	--	-0.054773
-0.130285	--	0.664924
0.183689	--	0.974319
-0.476153	--	0.284474
0.862022	--	-0.763880
-1.332004	--	-0.750085
-2.329867	--	-1.042314
-1.449097	--	0.729332
0.333511	--	0.649029
0.391354	--	-0.747381
0.451679	--	-0.229254
-0.130285	--	0.165780
0.183689	--	1.147344
-0.476153	--	0.673104
0.862022	--	-1.473290
-1.332004	--	-0.993843
-2.329867	--	-0.729208
-1.449097	--	0.565114
0.333511	--	-0.077571
0.391354	--	-1.205563
0.451679	--	-1.223672
-0.130285	--	-0.394170
0.183689	--	-0.073645
-0.476153	--	0.004288
0.862022	--	-0.898118
-1.332004	--	-1.220760
-2.329867	--	-0.763767
-1.449097	--	0.596175
0.333511	--	-0.219208
0.391354	--	-1.129862
0.451679	--	-1.476692
-0.130285	--	-0.593791
0.183689	--	-1.382302
-0.476153	--	-0.500403
0.862022	--	-1.354310
-1.361694	--	-0.644591
0.455030	--	-0.002887
-0.848709	--	0.075593
-0.334887	--	0.326765
0.552783	--	0.586724
1.039091	--	0.048262
-1.117639	--	0.854740
1.260659	--	0.997116
0.660143	--	0.080159
-0.067866	--	0.155329
-1.361694	--	-0.792154
0.455030	--	0.769333
-0.848709	--	-0.400617
-0.334887	--	0.197995
0.552783	--	0.594186
1.039091	--	-0.106610
-1.117639	--	0.537058
1.260659	--	0.795838
0.660143	--	-0.412666
-0.067866	--	-0.005706
-1.361694	--	-1.005449
0.455030	--	1.311802
-0.848709	--	-0.737148
-0.334887	--	-0.183860
0.552783	--	0.229823
1.039091	--	-0.425793
-1.117639	--	0.051569
1.260659	--	0.837859
0.660143	--	-0.729140
-0.067866	--	-0.450394
-1.361694	--	-0.600233
0.455030	--	-0.262244
-0.848709	--	0.576897
-0.334887	--	0.182094
0.552783	--	0.810165
1.039091	--	-0.295777
-1.117639	--	0.441967
1.260659	--	0.091387
0.660143	--	0.995948
-0.067866	--	-0.402803
-1.361694	--	-0.726149
0.455030	--	-0.066693
-0.848709	--	0.854929
-0.334887	--	-0.545315
0.552783	--	0.066894
1.039091	--	-0.614514
-1.117639	--	-0.510207
1.260659	--	0.574812
0.660143	--	1.551239
-0.067866	--	-1.457780
-1.361694	--	-0.923072
0.455030	--	0.621935
-0.848709	--	0.501126
-0.334887	--	-1.195236
0.552783	--	-0.504421
1.039091	--	-1.271590
-1.117639	--	-1.179738
1.260659	--	-0.187245
0.660143	--	0.878477
-0.067866	--	-1.284028
-1.361694	--	-1.395290
0.455030	--	0.939990
-0.848709	--	0.550527
-0.334887	--	-1.698056
0.552783	--	-0.657467
1.039091	--	-1.375024
-1.117639	--	-1.554737
1.260659	--	-0.589537
0.660143	--	0.292181
-0.067866	--	-2.181345
-0.195221	--	-0.124613
-0.217606	--	-0.163264
-0.303108	--	-0.109783
0.023046	--	0.381565
0.051290	--	0.249624
0.826063	--	0.978239
1.526977	--	1.788671
0.466914	--	0.240854
-0.209713	--	-0.723850
0.625190	--	0.355535
-0.195221	--	-0.344025
-0.217606	--	0.437447
-0.303108	--	-0.275935
0.023046	--	0.429449
0.051290	--	0.066768
0.826063	--	0.917033
1.526977	--	1.555986
0.466914	--	-0.329900
-0.209713	--	-1.573620
0.625190	--	0.613350
-0.195221	--	-0.507999
-0.217606	--	0.987664
-0.303108	--	-0.406161
0.023046	--	0.271848
0.051290	--	-0.042469
0.826063	--	0.689327
1.526977	--	1.236017
0.466914	--	0.170748
-0.209713	--	-1.781993
0.625190	--	-0.728605
-0.195221	--	-0.058096
-0.217606	--	-0.353941
-0.303108	--	0.112675
0.023046	--	0.283639
0.051290	--	0.324385
0.826063	--	0.491072
1.526977	--	1.865168
0.466914	--	0.294421
-0.209713	--	-0.180597
0.625190	--	0.024902
-0.195221	--	-0.178869
-0.217606	--	-0.197533
-0.303108	--	0.341628
0.023046	--	-0.207454
0.051290	--	-0.174396
0.826063	--	0.238500
1.526977	--	1.025003
0.466914	--	-0.100178
-0.209713	--	-0.041451
0.625190	--	-0.600776
-0.195221	--	-0.447364
-0.217606	--	0.438442
-0.303108	--	0.326790
0.023046	--	-0.837208
0.051290	--	-0.802927
0.826063	--	-0.187283
1.526977	--	0.217263
0.466914	--	-0.639896
-0.209713	--	-0.461846
0.625190	--	-0.571040
-0.195221	--	-0.709522
-0.217606	--	0.647299
-0.303108	--	0.204365
0.023046	--	-1.106253
0.051290	--	-0.875924
0.826063	--	-0.621282
1.526977	--	-0.167299
0.466914	--	-1.921225
-0.209713	--	-0.807290
0.625190	--	-1.385895
-1.349887	--	-0.839967
3.034923	--	1.514296
0.725404	--	0.010756
-0.063055	--	-0.407224
0.714743	--	1.399177
-0.204966	--	-1.260850
-0.124144	--	1.336567
1.489698	--	-0.091001
1.409034	--	0.649912
1.417192	--	2.361080
-1.349887	--	-1.036137
3.034923	--	2.337270
0.725404	--	-0.640671
-0.063055	--	-1.009054
0.714743	--	1.042067
-0.204966	--	-1.555643
-0.124144	--	0.933753
1.489698	--	0.848510
1.409034	--	0.396201
1.417192	--	1.979741
-1.349887	--	-1.078515
3.034923	--	2.646035
0.725404	--	-1.160128
-0.063055	--	-1.174901
0.714743	--	1.019009
-0.204966	--	-2.014457
-0.124144	--	0.677979
1.489698	--	1.147282
1.409034	--	0.282788
1.417192	--	1.684167
-1.349887	--	-0.747593
3.034923	--	0.974017
0.725404	--	0.638967
-0.063055	--	-0.534336
0.714743	--	1.674698
-0.204966	--	-1.867962
-0.124144	--	1.265372
1.489698	--	-1.072242
1.409034	--	1.634624
1.417192	--	1.829170
-1.349887	--	-0.778026
3.034923	--	1.232049
0.725404	--	0.885773
-0.063055	--	-1.318931
0.714743	--	0.906635
-0.204966	--	-2.525771
-0.124144	--	-0.061107
1.489698	--	-1.185854
1.409034	--	2.400858
1.417192	--	0.253848
-1.349887	--	-1.080368
3.034923	--	1.863458
0.725404	--	0.438869
-0.063055	--	-2.307364
0.714743	--	0.055930
-0.204966	--	-3.611842
-0.124144	--	-1.211548
1.489698	--	-1.828180
1.409034	--	1.495605
1.417192	--	0.207977
-1.349887	--	-1.434009
3.034923	--	2.203504
0.725404	--	0.058377
-0.063055	--	-2.537420
0.714743	--	-0.041273
-0.204966	--	-3.791098
-0.124144	--	-1.393846
1.489698	--	-1.617605
1.409034	--	0.639114
1.417192	--	-0.233828
0.671497	--	0.312278
-1.207487	--	-0.356337
0.717239	--	-0.191365
1.630235	--	1.467096
0.488894	--	0.361442
1.034693	--	1.383570
0.726885	--	0.113840
-0.303441	--	0.705249
0.293871	--	-0.496254
-0.787283	--	-0.555745
0.671497	--	0.100197
-1.207487	--	0.124496
0.717239	--	-0.303317
1.630235	--	1.278707
0.488894	--	0.051234
1.034693	--	1.492201
0.726885	--	-0.237120
-0.303441	--	0.414608
0.293871	--	-1.189923
-0.787283	--	-0.282216
0.671497	--	-0.034823
-1.207487	--	0.357469
0.717239	--	-0.532016
1.630235	--	1.177264
0.488894	--	0.141896
1.034693	--	0.919165
0.726885	--	-0.435840
-0.303441	--	-0.339374
0.293871	--	-1.603638
-0.787283	--	-1.271297
0.671497	--	0.410610
-1.207487	--	-0.746727
0.717239	--	0.035798
1.630235	--	1.406719
0.488894	--	0.502708
1.034693	--	1.139099
0.726885	--	0.198090
-0.303441	--	0.446269
0.293871	--	0.028685
-0.787283	--	-0.911381
0.671497	--	0.229630
-1.207487	--	-0.312752
0.717239	--	0.227293
1.630235	--	0.562667
0.488894	--	-0.277498
1.034693	--	1.024542
0.726885	--	-0.871940
-0.303441	--	1.267276
0.293871	--	0.574949
-0.787283	--	-1.946029
0.671497	--	-0.107390
-1.207487	--	0.135512
0.717239	--	0.249551
1.630235	--	0.358804
0.488894	--	-0.412463
1.034693	--	0.974549
0.726885	--	-1.147373
-0.303441	--	0.470834
0.293871	--	-0.299126
-0.787283	--	-1.761299
0.671497	--	-0.293850
-1.207487	--	0.190306
0.717239	--	0.129846
1.630235	--	-0.134794
0.488894	--	-0.545545
1.034693	--	0.086826
0.726885	--	-1.185865
-0.303441	--	-1.201232
0.293871	--	-0.859032
-0.787283	--	-1.948108
0.888396	--	0.327736
-1.147070	--	-0.671623
-1.068870	--	-0.610440
-0.809499	--	0.911101
-2.944284	--	-1.624915
1.438380	--	2.542069
0.325191	--	2.005560
-0.754928	--	-0.298866
1.370299	--	-0.886980
-1.711516	--	-0.482341
0.888396	--	0.092883
-1.147070	--	-0.056224
-1.068870	--	-0.728523
-0.809499	--	0.442213
-2.944284	--	-2.236319
1.438380	--	2.970436
0.325191	--	1.598746
-0.754928	--	0.370060
1.370299	--	-1.471538
-1.711516	--	-0.610010
0.888396	--	-0.048819
-1.147070	--	0.582140
-1.068870	--	-0.467408
-0.809499	--	0.832400
-2.944284	--	-2.499276
1.438380	--	3.732439
0.325191	--	0.923597
-0.754928	--	-0.028673
1.370299	--	-1.881288
-1.711516	--	-2.267806
0.888396	--	0.532663
-1.147070	--	-1.213391
-1.068870	--	-0.402628
-0.809499	--	0.756813
-2.944284	--	-1.172605
1.438380	--	1.689460
0.325191	--	2.149059
-0.754928	--	-0.516754
1.370299	--	0.280385
-1.711516	--	-1.071788
0.888396	--	0.396581
-1.147070	--	-0.897720
-1.068870	--	-0.165504
-0.809499	--	-0.243302
-2.944284	--	-2.153023
1.438380	--	1.626730
0.325191	--	0.847776
-0.754928	--	0.054974
1.370299	--	0.875937
-1.711516	--	-2.380618
0.888396	--	-0.015030
-1.147070	--	-0.174875
-1.068870	--	0.051217
-0.809499	--	-0.621791
-2.944284	--	-2.738378
1.438380	--	2.121705
0.325191	--	-0.312523
-0.754928	--	0.032079
1.370299	--	0.541616
-1.711516	--	-3.360865
0.888396	--	-0.334702
-1.147070	--	0.077109
-1.068870	--	0.279705
-0.809499	--	-0.873696
-2.944284	--	-3.065992
1.438380	--	2.114594
0.325191	--	-0.875825
-0.754928	--	-0.472798
1.370299	--	0.292300
-1.711516	--	-4.215395
-0.102242	--	-0.035403
-0.241447	--	-0.144975
0.319207	--	-0.147076
0.312859	--	0.967036
-0.864880	--	-0.268870
-0.030051	--	0.462397
-0.164879	--	0.405139
0.627707	--	0.296960
1.093266	--	0.121778
1.109273	--	0.981310
-0.102242	--	-0.294088
-0.241447	--	0.512693
0.319207	--	-0.351749
0.312859	--	0.467270
-0.864880	--	-0.547020
-0.030051	--	0.090484
-0.164879	--	-0.011436
0.627707	--	0.008475
1.093266	--	-0.533250
1.109273	--	1.105229
-0.102242	--	-0.439409
-0.241447	--	0.980038
0.319207	--	-0.647002
0.312859	--	0.306352
-0.864880	--	-0.475683
-0.030051	--	-0.492591
-0.164879	--	-0.298591
0.627707	--	0.027538
1.093266	--	-0.680907
1.109273	--	-0.189917
-0.102242	--	-0.014014
-0.241447	--	-0.506378
0.319207	--	0.288040
0.312859	--	0.734177
-0.864880	--	-0.033436
-0.030051	--	-0.156716
-0.164879	--	0.485023
0.627707	--	0.486183
1.093266	--	0.981911
1.109273	--	0.545619
-0.102242	--	-0.138853
-0.241447	--	-0.204903
0.319207	--	0.548855
0.312859	--	-0.082579
-0.864880	--	-0.808315
-0.030051	--	-0.340273
-0.164879	--	-0.671585
0.627707	--	0.608584
1.093266	--	1.386180
1.109273	--	-0.782420
-0.102242	--	-0.478891
-0.241447	--	0.384063
0.319207	--	0.345809
0.312859	--	-0.800188
-0.864880	--	-1.192730
-0.030051	--	-1.003406
-0.164879	--	-1.252651
0.627707	--	0.058576
1.093266	--	0.809419
1.109273	--	-0.677665
-0.102242	--	-0.779751
-0.241447	--	0.579079
0.319207	--	0.436359
0.312859	--	-1.315664
-0.864880	--	-1.491166
-0.030051	--	-1.352309
-0.164879	--	-1.639501
0.627707	--	-1.085774
1.093266	--	0.455333
1.109273	--	-0.958595
-0.863653	--	-0.336259
0.077359	--	-0.062718
-1.214117	--	0.060531
-1.113501	--	-0.063474
-0.006849	--	0.337097
1.532630	--	0.919133
-0.769666	--	0.899197
0.371379	--	0.499205
-0.225584	--	-0.502939
1.117356	--	0.470667
-0.863653	--	-0.558294
0.077359	--	0.529769
-1.214117	--	-0.175794
-1.113501	--	-0.401121
-0.006849	--	0.067572
1.532630	--	1.182776
-0.769666	--	0.712808
0.371379	--	0.599901
-0.225584	--	-1.219792
1.117356	--	0.480451
-0.863653	--	-0.615229
0.077359	--	1.096006
-1.214117	--	-0.488152
-1.113501	--	-0.228782
-0.006849	--	0.149088
1.532630	--	1.145885
-0.769666	--	0.575422
0.371379	--	0.589850
-0.225584	--	-1.350921
1.117356	--	-0.205172
-0.863653	--	-0.201223
0.077359	--	-0.415913
-1.214117	--	0.309595
-1.113501	--	-0.433838
-0.006849	--	0.352695
1.532630	--	0.277556
-0.769666	--	0.742016
0.371379	--	0.109068
-0.225584	--	0.258217
1.117356	--	0.279392
-0.863653	--	-0.388581
0.077359	--	-0.183820
-1.214117	--	0.548278
-1.113501	--	-0.929000
-0.006849	--	-0.170880
1.532630	--	0.480779
-0.769666	--	-0.139075
0.371379	--	-0.016258
-0.225584	--	0.542774
1.117356	--	-0.662434
-0.863653	--	-0.791169
0.077359	--	0.529061
-1.214117	--	0.625624
-1.113501	--	-1.657579
-0.006849	--	-0.662220
1.532630	--	0.116567
-0.769666	--	-0.956254
0.371379	--	-0.077456
-0.225584	--	0.188395
1.117356	--	-1.271363
-0.863653	--	-0.858364
0.077359	--	0.457179
-1.214117	--	0.545729
-1.113501	--	-1.557147
-0.006849	--	-0.595477
1.532630	--	-0.089440
-0.769666	--	-0.934176
0.371379	--	-1.894439
-0.225584	--	-0.362105
1.117356	--	-1.729052
-1.089064	--	-0.388163
0.032557	--	0.240994
0.552527	--	0.018474
1.100610	--	0.721947
1.544212	--	1.142069
0.085931	--	-1.208000
-1.491590	--	-0.873008
-0.742302	--	-0.565349
-1.061582	--	-1.013433
2.350457	--	1.779866
-1.089064	--	-0.555700
0.032557	--	0.497446
0.552527	--	-0.103085
1.100610	--	0.570729
1.544212	--	1.283190
0.085931	--	-1.237909
-1.491590	--	-1.042461
-0.742302	--	-0.472809
-1.061582	--	-1.180833
2.350457	--	1.360125
-1.089064	--	-0.736908
0.032557	--	1.373798
0.552527	--	-0.710050
1.100610	--	0.404215
1.544212	--	1.263126
0.085931	--	-1.950699
-1.491590	--	-1.254918
-0.742302	--	-1.163601
-1.061582	--	-1.807493
2.350457	--	1.387316
-1.089064	--	-0.435981
0.032557	--	0.058535
0.552527	--	0.488632
1.100610	--	0.552704
1.544212	--	1.221357
0.085931	--	-1.033364
-1.491590	--	-1.332288
-0.742302	--	-0.329500
-1.061582	--	0.068022
2.350457	--	0.792519
-1.089064	--	-0.483876
0.032557	--	0.113119
0.552527	--	0.612700
1.100610	--	-0.056551
1.544212	--	0.796923
0.085931	--	-1.693852
-1.491590	--	-1.598067
-0.742302	--	-0.782251
-1.061582	--	0.070455
2.350457	--	0.747581
-1.089064	--	-0.758225
0.032557	--	0.508504
0.552527	--	0.481170
1.100610	--	-0.351576
1.544212	--	0.473032
0.085931	--	-1.954807
-1.491590	--	-2.141974
-0.742302	--	-1.166356
-1.061582	--	-0.588156
2.350457	--	1.051075
-1.089064	--	-1.068217
0.032557	--	0.754183
0.552527	--	0.272273
1.100610	--	-1.291271
1.544212	--	0.177958
0.085931	--	-3.335136
-1.491590	--	-2.603733
-0.742302	--	-2.701173
-1.061582	--	-1.201399
2.350457	--	0.688537
-0.615602	--	-0.399864
0.748077	--	0.412230
-0.192419	--	-0.366847
0.888610	--	1.390038
-0.764849	--	-0.116469
-1.402269	--	-0.866019
-1.422376	--	0.037387
0.488194	--	-0.094183
-0.177375	--	-1.005626
-0.196053	--	0.593008
-0.615602	--	-0.729005
0.748077	--	1.093422
-0.192419	--	-0.726814
0.888610	--	0.734504
-0.764849	--	-0.491029
-1.402269	--	-1.061426
-1.422376	--	-0.316532
0.488194	--	0.343511
-0.177375	--	-1.816210
-0.196053	--	0.651226
-0.615602	--	-0.780211
0.748077	--	1.550592
-0.192419	--	-1.089856
0.888610	--	0.819073
-0.764849	--	-0.391322
-1.402269	--	-1.568786
-1.422376	--	-0.684386
0.488194	--	0.148076
-0.177375	--	-1.735764
-0.196053	--	-0.141947
-0.615602	--	-0.310591
0.748077	--	-0.269326
-0.192419	--	0.378853
0.888610	--	1.218125
-0.764849	--	0.005513
-1.402269	--	-1.336470
-1.422376	--	-0.160619
0.488194	--	-0.260123
-0.177375	--	0.249333
-0.196053	--	-0.347063
-0.615602	--	-0.389169
0.748077	--	0.039264
-0.192419	--	0.636441
0.888610	--	0.599851
-0.764849	--	-0.545676
-1.402269	--	-1.479392
-1.422376	--	-1.199167
0.488194	--	0.020607
-0.177375	--	0.727715
-0.196053	--	-1.891576
-0.615602	--	-0.853442
0.748077	--	0.774871
-0.192419	--	0.443701
0.888610	--	-0.648001
-0.764849	--	-1.494498
-1.402269	--	-2.443741
-1.422376	--	-2.242318
0.488194	--	-0.343112
-0.177375	--	0.113856
-0.196053	--	-2.055177
-0.615602	--	-1.214309
0.748077	--	1.107969
-0.192419	--	0.175452
0.888610	--	-1.104070
-0.764849	--	-1.258959
-1.402269	--	-2.848751
-1.422376	--	-2.159135
0.488194	--	-1.098332
-0.177375	--	-0.571928
-0.196053	--	-2.140862
1.419310	--	0.701790
0.291584	--	-0.008046
0.197811	--	-0.602501
1.587699	--	1.614453
-0.804466	--	-0.277451
0.696624	--	2.242204
0.835088	--	0.626406
-0.243715	--	0.043792
0.215670	--	-0.957918
-1.165844	--	0.110624
1.419310	--	0.356984
0.291584	--	0.815551
0.197811	--	-0.788378
1.587699	--	1.394671
-0.804466	--	-0.542445
0.696624	--	2.109337
0.835088	--	0.089125
-0.243715	--	-0.092238
0.215670	--	-2.098813
-1.165844	--	0.070594
1.419310	--	0.101951
0.291584	--	1.369374
0.197811	--	-0.868561
1.587699	--	1.168424
-0.804466	--	-0.644365
0.696624	--	2.025187
0.835088	--	-0.222112
-0.243715	--	0.422617
0.215670	--	-2.422702
-1.165844	--	-1.199823
1.419310	--	0.817187
0.291584	--	-0.367125
0.197811	--	-0.579098
1.587699	--	1.251564
-0.804466	--	-0.119629
0.696624	--	1.138557
0.835088	--	0.592637
-0.243715	--	0.133647
0.215670	--	-0.589846
-1.165844	--	-0.558714
1.419310	--	0.635518
0.291584	--	-0.036079
0.197811	--	-0.199154
1.587699	--	0.750514
-0.804466	--	-0.527515
0.696624	--	1.090176
0.835088	--	-0.423221
-0.243715	--	0.571434
0.215670	--	0.212683
-1.165844	--	-2.047491
1.419310	--	0.186470
0.291584	--	0.777965
0.197811	--	-0.164060
1.587699	--	-0.220691
-0.804466	--	-1.377113
0.696624	--	1.101207
0.835088	--	-1.409655
-0.243715	--	0.150966
0.215670	--	-0.273708
-1.165844	--	-2.190253
1.419310	--	-0.069664
0.291584	--	0.952225
0.197811	--	-0.055849
1.587699	--	-0.719164
-0.804466	--	-1.613993
0.696624	--	0.418636
0.835088	--	-1.552684
-0.243715	--	-1.065564
0.215670	--	-1.034057
-1.165844	--	-2.743813
-1.147953	--	-0.851415
0.104875	--	-0.286849
0.722254	--	0.253145
2.585491	--	2.447710
-0.666891	--	-0.347975
0.187331	--	-0.559342
-0.082494	--	1.722706
-1.933023	--	-0.888587
-0.438966	--	-0.870853
-1.794679	--	-0.471307
-1.147953	--	-1.021410
0.104875	--	0.422650
0.722254	--	-0.345380
2.585491	--	2.249200
-0.666891	--	-0.643360
0.187331	--	-0.569924
-0.082494	--	1.081342
-1.933023	--	-1.147617
-0.438966	--	-1.692875
-1.794679	--	-0.464809
-1.147953	--	-1.014280
0.104875	--	0.663274
0.722254	--	-0.707668
2.585491	--	2.316502
-0.666891	--	-0.622895
0.187331	--	-0.786381
-0.082494	--	0.256437
-1.933023	--	-0.999765
-0.438966	--	-1.319353
-1.794679	--	-2.250938
-1.147953	--	-0.786926
0.104875	--	-0.606355
0.722254	--	0.691258
2.585491	--	2.409527
-0.666891	--	-0.220458
0.187331	--	-0.738373
-0.082494	--	1.305407
-1.933023	--	-1.228004
-0.438966	--	-0.155043
-1.794679	--	-1.583642
-1.147953	--	-0.945811
0.104875	--	-0.272106
0.722254	--	0.912140
2.585491	--	1.914865
-0.666891	--	-0.692416
0.187331	--	-0.852985
-0.082494	--	0.273026
-1.933023	--	-0.785880
-0.438966	--	0.528239
-1.794679	--	-2.776708
-1.147953	--	-1.271329
0.104875	--	0.311471
0.722254	--	0.672615
2.585491	--	0.946749
-0.666891	--	-1.585857
0.187331	--	-1.034221
-0.082494	--	-0.795823
-1.933023	--	-1.460936
-0.438966	--	-0.274166
-1.794679	--	-3.040129
-1.147953	--	-1.705413
0.104875	--	0.583055
0.722254	--	0.621549
2.585491	--	0.520663
-0.666891	--	-1.770733
0.187331	--	-1.021379
-0.082494	--	-1.243807
-1.933023	--	-2.531408
-0.438966	--	-0.846389
-1.794679	--	-2.915113
------------------------------------------------
Mean RE: 3.339492
Median RE: 3.294957
Std RE: 1.015711
Mean AE: 7.938545
Median AE: 7.448633
Std AE: 2.798487
Mean SE: 3547.753533
Median SE: 3328.813965
Std SE: 1369.024113
------------------------------------------------
Mean RotE: 2.457430
Median RotE: 1.735963
Std RotE: 1.642247
Mean TE: 4348.553565
Median TE: 3551.841523
Std TE: 2854.413248
------------------------------------------------
Mean SmartAE: 1141904738947.657200
Median SmartAE: 889770672128.000000
Std SmartAE: 881017079902.174070
Mean RMSE_SE: 4318.261750
Median RMSE_SE: 4078.376343
Std RMSE_SE: 1649.255761
------------------------------------------------
Mean NormalsErr: 3.649643
Median NormalsErr: 3.527112
Std NormalsErr: 1.288363
------------------------------------------------
--------->-30 <----------
------------------------------------------------
Mean RE: 4.906756
Median RE: 4.877769
Std RE: 0.387676
Mean AE: 8.109527
Median AE: 7.680042
Std AE: 2.459532
Mean SE: 3987.763110
Median SE: 3843.300659
Std SE: 1193.711623
------------------------------------------------
Mean RotE: 1.717659
Median RotE: 1.442556
Std RotE: 0.929692
Mean TE: 3127.893942
Median TE: 2869.569208
Std TE: 1804.837374
------------------------------------------------
Mean SmartAE: 1349848432640.000000
Median SmartAE: 1159855800320.000000
Std SmartAE: 895831725877.089600
Mean RMSE_SE: 4812.241211
Median RMSE_SE: 4655.998047
Std RMSE_SE: 1478.924689
------------------------------------------------
Mean NormalsErr: 4.012759
Median NormalsErr: 3.822210
Std NormalsErr: 1.350521
------------------------------------------------
--------->-20 <----------
------------------------------------------------
Mean RE: 3.809872
Median RE: 3.815084
Std RE: 0.266902
Mean AE: 7.306012
Median AE: 6.954800
Std AE: 2.464092
Mean SE: 3257.559821
Median SE: 3081.341431
Std SE: 1162.261375
------------------------------------------------
Mean RotE: 1.631233
Median RotE: 1.452490
Std RotE: 0.702892
Mean TE: 3126.505763
Median TE: 2941.302401
Std TE: 1468.129412
------------------------------------------------
Mean SmartAE: 981750008217.599980
Median SmartAE: 827841740800.000000
Std SmartAE: 844693013047.233890
Mean RMSE_SE: 4027.548218
Median RMSE_SE: 3933.807251
Std RMSE_SE: 1498.334792
------------------------------------------------
Mean NormalsErr: 3.398026
Median NormalsErr: 3.508196
Std NormalsErr: 0.862770
------------------------------------------------
--------->-10 <----------
------------------------------------------------
Mean RE: 2.716747
Median RE: 2.668357
Std RE: 0.279267
Mean AE: 6.591860
Median AE: 6.431131
Std AE: 2.538830
Mean SE: 2804.405869
Median SE: 2700.221680
Std SE: 1225.698084
------------------------------------------------
Mean RotE: 1.087478
Median RotE: 0.897831
Std RotE: 0.624977
Mean TE: 1694.839119
Median TE: 1249.256797
Std TE: 1151.597223
------------------------------------------------
Mean SmartAE: 779230936064.000000
Median SmartAE: 590271184896.000000
Std SmartAE: 717520022915.779660
Mean RMSE_SE: 3512.573050
Median RMSE_SE: 3321.660522
Std RMSE_SE: 1531.985721
------------------------------------------------
Mean NormalsErr: 2.840411
Median NormalsErr: 2.712664
Std NormalsErr: 1.073895
------------------------------------------------
--------->0 <----------
------------------------------------------------
Mean RE: 1.899363
Median RE: 1.906131
Std RE: 0.210819
Mean AE: 6.282235
Median AE: 5.819905
Std AE: 2.640523
Mean SE: 2931.414288
Median SE: 2735.624023
Std SE: 1351.291302
------------------------------------------------
Mean RotE: 1.143920
Median RotE: 1.191394
Std RotE: 0.444854
Mean TE: 2087.033753
Median TE: 2213.730648
Std TE: 807.812679
------------------------------------------------
Mean SmartAE: 863283953049.599980
Median SmartAE: 610006499328.000000
Std SmartAE: 776610868832.835450
Mean RMSE_SE: 3654.274915
Median RMSE_SE: 3376.741089
Std RMSE_SE: 1712.317395
------------------------------------------------
Mean NormalsErr: 2.788538
Median NormalsErr: 2.536249
Std NormalsErr: 1.219708
------------------------------------------------
--------->10 <----------
------------------------------------------------
Mean RE: 2.478943
Median RE: 2.486970
Std RE: 0.255128
Mean AE: 7.215498
Median AE: 6.853803
Std AE: 2.460280
Mean SE: 3127.585852
Median SE: 3053.975098
Std SE: 1275.360515
------------------------------------------------
Mean RotE: 2.607892
Median RotE: 2.775713
Std RotE: 0.826359
Mean TE: 5106.768218
Median TE: 5482.085113
Std TE: 1602.674998
------------------------------------------------
Mean SmartAE: 944265525657.599980
Median SmartAE: 766928879616.000000
Std SmartAE: 788926177673.634640
Mean RMSE_SE: 3887.695966
Median RMSE_SE: 3785.171387
Std RMSE_SE: 1634.800125
------------------------------------------------
Mean NormalsErr: 3.268256
Median NormalsErr: 3.340130
Std NormalsErr: 0.988940
------------------------------------------------
--------->20 <----------
------------------------------------------------
Mean RE: 3.359538
Median RE: 3.294957
Std RE: 0.253646
Mean AE: 8.831446
Median AE: 8.353527
Std AE: 2.208375
Mean SE: 3917.215234
Median SE: 3748.679443
Std SE: 1222.393223
------------------------------------------------
Mean RotE: 4.022167
Median RotE: 4.134858
Std RotE: 1.125101
Mean TE: 7342.960959
Median TE: 7498.334977
Std TE: 2254.382363
------------------------------------------------
Mean SmartAE: 1302894333132.800000
Median SmartAE: 1103347777536.000000
Std SmartAE: 929711324564.623660
Mean RMSE_SE: 4712.882410
Median RMSE_SE: 4538.829590
Std RMSE_SE: 1503.148170
------------------------------------------------
Mean NormalsErr: 4.207176
Median NormalsErr: 4.093101
Std NormalsErr: 1.040873
------------------------------------------------
--------->30 <----------
------------------------------------------------
Mean RE: 4.205227
Median RE: 4.159564
Std RE: 0.308778
Mean AE: 11.233233
Median AE: 11.380109
Std AE: 1.661421
Mean SE: 4808.330554
Median SE: 4608.461670
Std SE: 1100.168876
------------------------------------------------
Mean RotE: 4.991663
Median RotE: 5.021845
Std RotE: 1.177795
Mean TE: 7953.873198
Median TE: 7984.955841
Std TE: 2213.902578
------------------------------------------------
Mean SmartAE: 1772059983872.000000
Median SmartAE: 1612924321792.000000
Std SmartAE: 882395759422.878540
Mean RMSE_SE: 5620.616479
Median RMSE_SE: 5491.104492
Std RMSE_SE: 1272.141755
------------------------------------------------
Mean NormalsErr: 5.032337
Median NormalsErr: 4.785745
Std NormalsErr: 0.839423
