10957, 11086, 10958, 0.0165103216216, 0.713004393454, 0.270485284924
11344, 11472, 11473, 0.219783771305, 0.315062316132, 0.465153912563
11859, 11988, 11860, 0.527834748748, 0.164679102849, 0.307486148402
12118, 12247, 12248, 0.806394004052, 0.0305791075055, 0.163026888443
12376, 12506, 12377, 0.265396169859, 0.11732333631, 0.617280493831
12506, 12635, 12636, 0.343833587611, 0.117565655175, 0.538600757213
12637, 12766, 12638, 0.383118872736, 0.581463240529, 0.0354178867349
12768, 12896, 12897, 0.0572618064022, 0.929893101341, 0.0128450922563
13026, 13155, 13156, 0.756152097701, 0.0480444826336, 0.195803419665
13156, 13285, 13286, 0.471396514281, 0.118102658292, 0.410500827428
50899, 50987, 50900, 0.562425391058, 0.256705324719, 0.180869284223
50988, 51077, 50989, 0.0189760532665, 0.455518614831, 0.525505331902
51079, 51168, 51169, 0.411872029308, 0.0643321040454, 0.523795866646
51170, 51262, 51171, 0.173170464388, 0.099292654043, 0.727536881569
51263, 51355, 51264, 0.675000925872, 0.0211027674752, 0.303896306653
51264, 51356, 51357, 0.125878819684, 0.0370828646094, 0.837038315706
51358, 51451, 51359, 0.218942687161, 0.0384804058147, 0.742576907024
51360, 51453, 51361, 0.0700036410591, 0.653779324821, 0.27621703412
51454, 51548, 51455, 0.0161500635176, 0.159533312464, 0.824316624018
51363, 51456, 51457, 0.0151550157878, 0.312759287277, 0.672085696935
51458, 51552, 51459, 0.494858969417, 0.30127456081, 0.203866469773
51459, 51554, 51460, 0.26472484632, 0.525578849973, 0.209696303707
51461, 51555, 51556, 0.33486939283, 0.406447000802, 0.258683606368
51463, 51557, 51558, 0.88186636702, 0.0915928063379, 0.0265408266422
51464, 51558, 51465, 0.373511808505, 0.0929732951977, 0.533514896297
51466, 51560, 51467, 0.957874050829, 0.00412223980609, 0.0380037093648
51374, 51467, 51375, 0.0213508594328, 0.209414884105, 0.769234256462
51284, 51376, 51377, 0.02549568009, 0.704744051795, 0.269760268115
51284, 51376, 51377, 0.02549568009, 0.704744051795, 0.269760268115
