14874, 15004, 14875, 0.0195023905519, 0.297350732119, 0.683146877329
15391, 15520, 15392, 0.186152252817, 0.011329445372, 0.802518301811
15779, 15908, 15780, 0.917349288351, 0.0504442531978, 0.0322064584515
16038, 16166, 16167, 0.186400760024, 0.036345307829, 0.777253932147
16425, 27560, 16426, 0.0394807142145, 0.115907367575, 0.844611918211
27690, 27820, 27691, 0.889448393265, 0.0413758540671, 0.0691757526682
27820, 27948, 27949, 0.324019527378, 0.0293892441892, 0.646591228433
28078, 28208, 28079, 0.231039501644, 0.0408674511187, 0.728093047238
28208, 28336, 28337, 0.68119223118, 0.0096740000563, 0.309133768764
28338, 28466, 28467, 0.531993934231, 0.258040372385, 0.209965693384
28468, 28596, 28597, 0.447314083104, 0.534652185632, 0.0180337312638
28597, 28726, 28598, 0.248120025858, 0.580973948721, 0.170906025421
28726, 28855, 28856, 0.376853625856, 0.283975393062, 0.339170981082
28856, 28985, 28986, 0.424751489422, 0.538824219498, 0.0364242910794
28986, 29114, 29115, 0.495958386642, 0.280125097113, 0.223916516245
29114, 29244, 29115, 0.104675015242, 0.474638801249, 0.420686183509
29244, 29374, 29245, 0.418227470894, 0.360696631901, 0.221075897205
29374, 29504, 29375, 0.739582610957, 0.231047693105, 0.0293696959372
29503, 29632, 29504, 0.391729306849, 0.159067398651, 0.4492032945
29633, 29762, 29634, 0.87098560984, 0.00617490827363, 0.122839481887
29634, 29762, 29763, 0.161463255649, 0.193149982399, 0.645386761952
29762, 29892, 29763, 6.07559617029e-05, 0.734330861729, 0.265608382309
29892, 30022, 29893, 0.323878756143, 0.554306911115, 0.121814332742
30022, 30151, 30152, 0.63470434287, 0.0151311181725, 0.350164538958
30151, 30280, 30152, 0.210514884581, 0.236932326945, 0.552552788474
30281, 30410, 30282, 0.744493780752, 0.0296318379112, 0.225874381337
30282, 30410, 30411, 0.196439315142, 0.124997418904, 0.678563265954
30412, 30540, 30541, 0.411954381583, 0.462365933297, 0.12567968512
30540, 30670, 30541, 0.230638400355, 0.478174214393, 0.291187385252
30670, 30800, 30671, 0.548778690448, 0.300411662897, 0.150809646655
30800, 30930, 30801, 0.873022250366, 0.113028289876, 0.0139494597584
30800, 30929, 30930, 0.024000463596, 0.629356491889, 0.346643044515
30930, 31059, 31060, 0.224714168847, 0.759216715552, 0.0160691156009
31060, 31188, 31189, 0.40907860535, 0.322785547642, 0.268135847008
31188, 31318, 31189, 0.114789057725, 0.43402711338, 0.451183828895
31318, 31448, 31319, 0.471627071135, 0.239785565665, 0.2885873632
31448, 31578, 31449, 0.838118264175, 0.0520296135568, 0.109852122268
31448, 31577, 31578, 0.12224933788, 0.523709812493, 0.354040849627
31578, 31706, 31707, 0.307665172377, 0.0348682024688, 0.657466625154
31708, 31836, 31837, 0.498823381433, 0.43456454507, 0.0666120734968
31836, 31966, 31837, 0.270014236813, 0.319235864822, 0.410749898365
31966, 32096, 31967, 0.700508858246, 0.134431709853, 0.165059431901
31966, 32095, 32096, 0.0557265308438, 0.0922256646055, 0.852047804551
32096, 32225, 32226, 0.24463855979, 0.373478612729, 0.381882827481
32226, 32354, 32355, 0.46003126326, 0.488343911983, 0.0516248247567
32354, 32484, 32355, 0.0138901717913, 0.29236258033, 0.693747247879
32484, 32614, 32485, 0.539137439047, 0.115378560921, 0.345484000032
32484, 32614, 32485, 0.539137439047, 0.115378560921, 0.345484000032
