n_points: 68
{
328.597070 335.145904
325.317449 378.072514
331.271635 425.573870
341.930449 471.150383
359.158879 511.052336
370.776704 557.929925
391.687183 605.201427
409.985070 648.438902
447.052612 680.291414
515.397416 683.312119
578.646199 663.781295
639.981308 625.136449
697.900935 581.257944
746.257645 531.813750
772.155207 464.823482
784.655947 392.644493
794.816896 324.546734
332.157753 211.249378
349.140679 215.712369
362.212977 224.545950
376.903076 232.478822
388.836681 238.689714
489.524986 230.841671
528.682976 221.075429
567.942742 216.892276
606.639439 223.791588
643.570481 238.827835
441.652840 288.765004
432.702662 317.568163
422.672282 345.633226
412.654810 373.378046
404.280036 436.334692
417.143970 444.889534
431.870731 449.395183
456.645509 446.634228
479.312525 437.928618
352.781311 294.576368
367.035498 279.611792
389.842518 280.876300
409.011254 291.965215
391.532350 304.852992
370.027214 306.462886
521.368579 290.507232
541.939840 275.185078
567.426032 277.840260
591.067265 290.089954
569.492076 298.513176
544.600865 297.976620
391.087442 525.048093
402.059053 510.044469
417.301744 500.970471
430.324405 504.026692
460.505355 501.792940
492.897239 515.650731
523.288556 531.223588
494.012884 550.762746
463.512133 558.175061
434.179618 559.331362
417.709261 557.244777
400.291370 552.362714
403.396574 528.641788
424.556531 528.436559
432.397747 528.216582
455.694444 529.198203
482.859621 532.049311
454.359111 528.570234
432.010952 529.238480
423.675353 529.720683
}
